{
  "version":3,
  "update_time":20210425,
  "auto_refresh_rate_policy_mode": "blacklist",
  "auto_refresh_rate_blacklist": [
    "com.transsion.camera",
    "com.android.vending",
    "com.android.chrome",
    "com.sh.smart.caller",
    "com.google.android.youtube",
    "com.transsion.phonemaster",
    "com.android.incallui",
    "com.transsion.deskclock",
    "com.transsion.calculator",
    "com.whatsapp",
    "com.android.quickstep",
    "com.google.android.gms",
    "com.google.android.permissioncontroller",
    "com.transsnet.store",
    "com.facebook.katana",
    "com.transsion.magazineservice",
    "com.android.systemui",
    "com.android.phone",
    "net.bat.store",
    "com.transsion.filemanagerx",
    "com.google.android.packageinstaller",
    "com.facebook.orca",
    "com.google.android.googlequicksearchbox",
    "com.google.android.apps.youtube.music",
    "com.google.android.gm",
    "com.instagram.android",
    "com.afmobi.boomplayer",
    "com.google.android.calendar",
    "com.google.android.apps.photos",
    "com.google.android.documentsui",
    "com.google.android.apps.docs",
    "com.hoffnung",
    "com.google.android.apps.maps",
    "com.rlk.weathers",
    "com.android.stk",
    "com.google.android.apps.tachyon",
    "com.snapchat.android",
    "com.google.android.apps.photosgo",
    "com.android.bluetooth",
    "com.google.android.apps.assistant",
    "com.transsion.smartpanel",
    "com.transsion.carlcare",
    "com.transsion.magicshow",
    "com.google.android.inputmethod.latin",
    "com.android.wallpaperpicker",
    "com.android.providers.media",
    "com.facebook.lite",
    "com.transsion.notebook",
    "com.google.android.apps.nbu.files",
    "com.transsion.soundrecorder",
    "com.google.android.apps.searchlite",
    "com.nemo.vidmate",
    "cn.xender",
    "com.infinix.xshare",
    "com.zhiliaoapp.musically",
    "com.transsion.plat.appupdate",
    "com.trassion.infinix.xclub",
    "com.transsion.applock",
    "com.zaz.translate",
    "com.android.documentsui",
    "com.hatsune.eagleee",
    "com.transsion.wifiplaytogether",
    "com.transsion.fmradio",
    "com.luutinhit.ioslauncher",
    "com.apusapps.launcher",
    "com.launcher.ios11.iphonex",
    "com.teslacoilsw.launcher",
    "com.launcher.smart.android",
    "com.transsion.itel.launcher",
    "com.shopee.foody.driver.id",
    "com.grabtaxi.driver2",
    "com.gojek.partner",
    "com.aero",
    "com.google.android.dialer",
    "com.jtwhatsapp",
    "com.newhatsapp",
    "com.WhatsApp4Plus",
    "ee.mtakso.driver",
    "com.truecaller",
    "com.tmwhatsapp",
    "com.WhatsApp2Plus",
    "com.blueWAplus",
    "com.ha2whatsapp",
    "com.bykea.pk.partner",
    "com.obwhatsapp",
    "com.ob2whatsapp",
    "com.hawhatsapp",
    "com.ob3whatsapp",
    "com.adwhatsapp",
    "com.gbwhatsapp",
    "com.yowhatsapp",
    "com.ob4whatsapp",
    "com.WhatsApp3Plus",
    "com.fmwhatsapp",
    "com.gbwhatsapp3",
    "com.taxsee.driver",
    "ir.ilmili.telegraph",
    "com.careem.adma",
    "com.hb.dialer.free",
    "com.ubercab.driver",
    "com.dobai.kis",
    "com.callapp.contacts",
    "multi.parallel.dualspace.cloner",
    "sg.bigo.hellotalk",
    "com.grindrapp.android",
    "com.whatsapp.w4b",
    "com.starmakerinteractive.thevoice",
    "org.xbet.client1",
    "net.metaquotes.metatrader5",
    "net.metaquotes.metatrader4",
    "com.live.party",
    "com.google.android.talk",
    "com.dualspace.multispace.android",
    "com.app.dream11Pro",
    "com.sportybet.android",
    "com.youdao.hindict",
    "org.xbet.client.cm",
    "com.blued.international",
    "com.voicechat.live.group",
    "com.excelliance.multiaccounts",
    "com.google.android.apps.googlevoice",
    "com.app.cricketapp",
    "org.telegram.plus",
    "com.easybuy.client",
    "com.qhqc.starvoice",
    "org.vidogram.messenger",
    "com.sgiggle.production",
    "us.current.android",
    "com.imo.android.imoimbeta",
    "com.hopegaming.android",
    "com.global.live",
    "com.imo.android.imoimhd",
    "org.thunderdog.challegram",
    "com.ludashi.dualspace",
    "com.tencent.mm",
    "in.cricketexchange.app.cricketexchange",
    "sinet.startup.inDriver",
    "com.game.friends.android",
    "com.lbe.parallel.intl.arm64",
    "eu.livesport.FlashScore_com",
    "sound.effect.equalizer.musicplayer",
    "com.live.soulchill",
    "com.google.android.apps.translate",
    "com.myyearbook.m",
    "jp.naver.line.android",
    "com.google.android.apps.dynamite",
    "com.litatom.app",
    "com.microsoft.teams",
    "com.fun.share",
    "com.imo.android.imoim",
    "com.facebook.pages.app",
    "com.pevans.sportpesa.tz",
    "com.fiverr.fiverr",
    "com.clubhouse.app",
    "com.onesports.score",
    "com.mico",
    "com.wemesh.android",
    "com.ss.android.ugc.trill",
    "mini.block.craft.free.mc",
    "com.wemade.mir4global",
    "com.cloneapp.parallelspace.dualspace",
    "ru.fotostrana.sweetmeet",
    "com.dmk.betika",
    "com.sofascore.results",
    "com.lbe.parallel.intl",
    "com.pahina.reader",
    "com.aed.droidvpn",
    "com.ookbee.joyapp.android",
    "com.taggedapp",
    "com.transsion.overlaysuw",
    "com.discord",
    "com.zynga.words3",
    "com.gluak.f24",
    "com.michatapp.im",
    "com.binance.dev",
    "com.hatunnel.plus",
    "wp.wattpad",
    "com.ai.face.play",
    "com.imo.android.imoimlite",
    "org.telegram.messenger",
    "com.moonvideo.android.resso",
    "com.facebook.mlite",
    "com.zytoona.wordscrush",
    "com.gameberry.ludo.star2",
    "com.higgs.domino",
    "me.zepeto.main",
    "com.vanced.android.youtube",
    "com.thankyo.hwgame",
    "com.yy.hiyo",
    "com.domobile.applockwatcher",
    "com.imaginstudio.imagetools.pixellab",
    "xyz.penpencil.physicswala",
    "com.vkontakte.android",
    "com.globecast.tve.ortn",
    "com.yalla.yallagames",
    "com.grab.merchant",
    "com.app_mo.splayer",
    "com.chrome.beta",
    "com.hkfuliao.chamet",
    "com.tinder",
    "com.starmakerinteractive.starmaker",
    "com.waze",
    "com.oyetalk.tv",
    "mobi.mangatoon.comics.aphone",
    "co.brainly",
    "com.shopee.id",
    "com.opera.mini.android",
    "com.p1.mobile.putong",
    "com.alightcreative.motion",
    "com.supercell.clashroyale",
    "com.audiomack",
    "com.dywx.larkplayer",
    "org.thoughtcrime.securesms",
    "com.mobilefootie.wc2010",
    "istark.vpn.starkreloaded",
    "com.dts.freefireth",
    "us.zoom.videomeetings",
    "com.supercell.hayday",
    "com.viber.voip",
    "com.axieinfinity.origin",
    "jp.ne.ibis.ibispaintx.app",
    "com.google.android.music",
    "com.play.rosea",
    "e.books.reading.apps",
    "com.tencent.ig",
    "com.mobile.legends",
    "com.miHoYo.GenshinImpact",
    "ug.yotv.yotvmobile",
    "com.dts.freefiremax",
    "com.pubg.krmobile",
    "com.pubg.imobile",
    "com.garena.game.codm",
    "com.garena.game.kgth",
    "com.riotgames.league.wildrift",
    "com.tencent.iglite",
    "com.roblox.client",
    "com.syriatel.mobile",
    "jp.konami.pesam",
    "com.netflix.mediaclient",
    "com.shabakaty.cinemana",
    "com.boundless.jawaker",
    "com.higgs.tongitsstar",
    "com.stream.drakorindoawet",
    "com.activision.callofduty.shooter",
    "com.neptune.domino",
    "com.esite_iq.vodu2",
    "com.utkarshnew.android",
    "com.google.android.apps.youtube.mango",
    "com.careerwill.careerwillapp",
    "com.viu.phone",
    "com.viki.android",
    "com.blim",
    "com.mxtech.videoplayer.pro",
    "org.ppsspp.ppssppgold",
    "com.bstar.intl",
    "org.ppsspp.ppsspp",
    "com.tongitsgo.play",
    "video.player.videoplayer",
    "com.GlobalSoFunny.Sausage",
    "com.ea.game.fifa14_row",
    "com.je.supersus",
    "com.playjoygame.pg",
    "in.ludo.supremegold",
    "com.mikaapp.android",
    "com.ekart.logistics.app",
    "com.hoboetech.rescue.driver",
    "com.airlift.rider",
    "com.mxtech.videoplayer.ad",
    "com.transsion.demomode",
    "id.bluebird.driver",
    "com.gojek.driver.bird",
    "mobi.mangatoon.novel.lite",
    "com.netease.mrzhna",
    "com.netmarble.sk2gb",
    "com.halo.mobile",
    "com.estgames.cm.ph",
    "com.pgsc.logger",
    "com.yango.driver",
    "ru.yandex.taximeter",
    "com.bolt.deliverycourier",
    "com.iqiyi.i18n",
    "com.toters.shopper",
    "com.socialnetwork.hayya",
    "com.talabateydriver",
    "com.juhaoliao.vochat",
    "com.lgana.voip",
    "com.all2chat.voip",
    "club.jinmei.mgvoice",
    "com.always.on.display.amoled.wallpaper.black",
    "com.autocab.driverapp",
    "com.casino.gamemania",
    "com.wasili.driver",
    "com.microsoft.launcher",
    "com.mi.android.globallauncher",
    "com.anddoes.launcher",
    "in.swiggy.deliveryapp",
    "com.xos.iphonex.iphone.applelauncher",
    "com.ioslauncher.free2",
    "com.web.hfcpak",
    "ginlemon.flowerfree",
    "com.webgenie.ioslauncher",
    "com.babydola.launcherios",
    "com.fareyereact",
    "indian.plusone.phone.launcher",
    "com.apusapps.launcher.pro",
    "com.victorygroup.launcher",
    "com.excel.apps.galaxy.launcher",
    "com.tcl.android.launcher",
    "com.aurhe.ap15",
    "com.transsion.screenrecord",
    "com.opera.mini.native",
    "com.tencent.tmgp.speedmobile",
    "com.kiloo.subwaysurf",
    "com.king.candycrushsaga",
    "com.imangi.templerun",
    "com.imangi.templerun2",
    "com.tonielrosoft.classicludofree",
    "com.firsttouchgames.story",
    "com.ludo.king",
    "com.outfit7.mytalkingangelafree",
    "com.sports.live.football.tv",
    "video.like",
    "iflix.play",
    "ru.yandex.searchplugin",
    "org.videolan.vlc",
    "video.like.lite",
    "com.tencent.mobileqq",
    "com.qiyi.video",
    "com.youku.phone",
    "com.tencent.qqlive",
    "com.sohu.sohuvideo",
    "com.hunantv.imgo.activity",
    "com.ss.android.ugc.aweme",
    "com.smile.gifmaker",
    "com.duowan.kiwi",
    "air.tv.douyu.android",
    "tv.danmaku.bili",
    "com.opera.browser",
    "com.dynamicgames.worldbusdrivingsimulator",
    "com.firsttouchgames.dls3",
    "com.gameloft.android.ANMP.GloftA8HM",
    "com.gameloft.android.ANMP.GloftA8CN",
    "com.rovio.angrybirdsseasons",
    "com.sina.weibo",
    "com.google.android.apps.messaging"
  ],
  "auto_refresh_rate_whitelist": [
    "android",
    "com.transsion.phoenix",
    "com.gallery20",
    "com.android.contacts",
    "com.transsion.hilauncher",
    "com.transsion.XOSLauncher",
    "com.transsion.hilauncher.upgrade",
    "com.transsion.XOSLauncher.upgrade",
    "com.android.settings"
  ],
  "x689f_high_refresh_rate_whitelist": [
    "com.whatsapp",
    "com.instagram.android",
    "com.facebook.orca",
    "com.google.android.apps.photos",
    "com.android.vending",
    "com.flipkart.android",
    "com.gallery20",
    "com.transsion.phoenix",
    "com.afmobi.boomplayer",
    "net.bat.store",
    "com.transsnet.store",
    "com.cricbuzz.android",
    "com.google.android.apps.photosgo",
    "com.ghd.tvv6",
    "com.opera.app.news",
    "com.yy.hiyo",
    "com.twitter.android",
    "in.amazon.mShop.android.shopping",
    "org.telegram.messenger",
    "com.yowhatsapp",
    "com.next.innovation.takatak",
    "com.dewmobile.kuaiya.play",
    "com.google.android.apps.nbu.files",
    "com.google.android.gm",
    "com.google.android.apps.youtube.music",
    "com.google.android.apps.messaging",
    "com.android.contacts",
    "com.transsion.hilauncher",
    "com.transsion.XOSLauncher",
    "com.android.settings",
    "com.transsion.hilauncher.upgrade",
    "com.transsion.XOSLauncher.upgrade"
  ],
  "high_refresh_rate_blacklist": [
    "com.transsion.screenrecord",
    "com.opera.mini.native",
    "com.tencent.tmgp.speedmobile",
    "com.dts.freefireth",
    "com.kiloo.subwaysurf",
    "com.king.candycrushsaga",
    "com.imangi.templerun",
    "com.imangi.templerun2",
    "com.tonielrosoft.classicludofree",
    "com.firsttouchgames.story",
    "com.ludo.king",
    "com.outfit7.mytalkingangelafree",
    "com.ss.android.ugc.trill",
    "com.sports.live.football.tv",
    "video.like",
    "com.mxtech.videoplayer.ad",
    "iflix.play",
    "com.starmakerinteractive.starmaker",
    "com.gbwhatsapp3",
    "com.lbe.parallel.intl.arm64",
    "ru.yandex.searchplugin",
    "com.nemo.vidmate",
    "com.google.android.apps.nbu.files",
    "cn.xender",
    "com.grabtaxi.driver2",
    "ee.mtakso.driver",
    "com.waze",
    "com.vanced.android.youtube",
    "video.player.videoplayer",
    "org.videolan.vlc",
    "video.like.lite",
    "com.tencent.mobileqq",
    "com.qiyi.video",
    "com.youku.phone",
    "com.tencent.qqlive",
    "com.sohu.sohuvideo",
    "com.hunantv.imgo.activity",
    "com.ss.android.ugc.aweme",
    "com.smile.gifmaker",
    "com.duowan.kiwi",
    "air.tv.douyu.android",
    "tv.danmaku.bili",
    "com.opera.browser",
    "com.dynamicgames.worldbusdrivingsimulator",
    "com.firsttouchgames.dls3"
  ],
  "g95_high_refresh_rate_blacklist": [
    "com.tencent.mobileqq",
    "com.youku.phone",
    "com.gameloft.android.ANMP.GloftA8HM",
    "com.gameloft.android.ANMP.GloftA8CN"
  ],
  "g80_high_refresh_rate_blacklist": [
    "com.skype.raider",
    "com.tencent.wework"
  ],
  "g85_high_refresh_rate_blacklist": [
    "com.tencent.mobileqq",
    "com.tencent.tmgp.sgame",
    "com.youku.phone",
    "com.gameloft.android.ANMP.GloftA8HM",
    "com.gameloft.android.ANMP.GloftA8CN"
  ],
  "ac8_high_refresh_rate_blacklist": [
    "com.google.android.youtube",
    "com.ss.android.ugc.trill",
    "com.google.android.apps.maps",
    "com.autonavi.minimap",
    "com.baidu.BaiduMap",
    "com.nemo.vidmate",
    "video.like",
    "com.mxtech.videoplayer.ad",
    "com.playit.videoplayer",
    "com.snaptube.premium",
    "com.google.android.apps.youtube.mango",
    "org.videolan.vlc",
    "com.zhiliaoapp.musically.go",
    "com.nexstreaming.app.kinemasterfree",
    "com.kwai.bulldog",
    "video.like.lite",
    "com.lemon.lvoverseas",
    "video.player.videoplayer",
    "com.xvideostudio.videoeditor",
    "com.quvideo.xiaoying",
    "free.video.downloader.freevideodownloader",
    "com.fmwhatsapp",
    "all.video.downloader.allvideodownloader",
    "com.rahul.videoderbeta",
    "com.roidapp.photogrid",
    "com.google.android.apps.photos",
    "com.gallery20"
  ],
  "pubg_package_list": [
    "com.tencent.ig",
    "com.pubg.krmobile",
    "com.vng.pubgmobile",
    "com.rekoo.pubgm",
    "com.tencent.igce",
    "com.tencent.tmgp.pubgmhd"
  ]
}
